<svg width="20" height="21" viewBox="0 0 20 21" fill="none" xmlns="http://www.w3.org/2000/svg">
<g clip-path="url(#clip0_997_19413)">
<path d="M12.4999 9.13379L9.16654 12.4671L14.1665 17.4671L17.4999 4.13379L2.49988 9.96712L5.83321 11.6338L7.49988 16.6338L9.99988 13.3005" stroke="white" stroke-width="1.5" stroke-linecap="round" stroke-linejoin="round"/>
</g>
<defs>
<clipPath id="clip0_997_19413">
<rect width="20" height="20" fill="white" transform="translate(-0.00012207 0.800781)"/>
</clipPath>
</defs>
</svg>
